01: Introduction to R and Bioconductor
…
## See spec(...) for full column specifications.

pdata

## # A tibble: 128 x 22
##    sample cod   diagnosis sex     age BT    remission CR    date.cr
##    <chr>  <chr> <chr>     <chr> <dbl> <chr> <chr>     <chr> <chr>  
##  1 01005  1005  5/21/1997 M        53 B2    CR        CR    8/6/19
##  2 01010  1010  3/29/2000 M        19 B2    CR        CR    6/27/2
##  3 03002  3002  6/24/1998 F        52 B4    CR        CR    8/17/1
##  4 04006  4006  7/17/1997 M        38 B1    CR        CR    9/8/19
##  5 04007  4007  7/22/1997 M        57 B2    CR        CR    9/17/1
##  6 04008  4008  7/30/1997 M        17 B1    CR        CR    9/27/1
##  7 04010  4010  10/30/19 F        18 B1    CR        CR    1/7/19
##  8 04016  4016  2/10/2000 M        16 B1    CR        CR    4/17/2
##  9 06002  6002  3/19/1997 M        15 B2    CR        CR    6/9/19
## 10 08001  8001  1/15/1997 M        40 B2    CR        CR    3/26/1
## #  with 118 more rows, and 13 more variables: `t(4;11)` <lgl>,
## #   `t(9;22)` <lgl>, cyto.normal <lgl>, citog <chr>, mol.biol <chr>,
## #   `fusion protein` <chr>, mdr <chr>, kinet <chr>, ccr <lgl>,
## #   relapse <lgl>, transplant <lgl>, f.u <chr>, `date last seen` <chr>

dplyr for data manipulation

library(dplyr)

pdata %>% select(sample, sex, age, mol.biol)

## # A tibble: 128 x 4
##    sample sex     age mol.biol
##    <chr>  <chr> <dbl> <chr>   
##  1 01005  M        53 BCR/ABL 
##  2 01010  M        19 NEG     
##  3 03002  F        52 BCR/ABL 
##  4 04006  M        38 ALL1/AF4
##  5 04007  M        57 NEG     
##  6 04008  M        17 NEG     
##  7 04010  F        18 NEG     
##  8 04016  M        16 NEG     
##  9 06002  M        15 NEG     
## 10 08001  M        40 BCR/ABL 
## #  with 118 more rows

pdata %>% filter(sex == "F", age < 50)

## # A tibble: 33 x 22
##    sample cod   diagnosis sex     age BT    remission CR    date.cr
##    <chr>  <chr> <chr>     <chr> <dbl> <chr> <chr>     <chr> <chr>  
##  1 04010  4010  10/30/19 F        18 B1    CR        CR    1/7/19
##  2 09017  9017  2/3/2000  F        27 B     CR        CR    3/23/2
##  3 12012  12012 5/21/1997 F        36 B3    REF       REF   <NA>   
##  4 16009  16009 7/11/2000 F        43 B2    <NA>      <NA>  <NA>   
##  5 19005  19005 11/15/19 F        48 B1    CR        CR    2/3/19
##  6 22009  22009 8/10/1999 F        19 B     <NA>      <NA>  <NA>   
##  7 22010  22010 12/31/19 F        26 B     <NA>      <NA>  <NA>   
##  8 24001  24001 10/4/1996 F        17 B2    CR        CR    12/20/
##  9 24005  24005 1/3/1997  F        45 B1    CR        CR    4/8/19
## 10 24008  24008 5/14/1997 F        20 B2    CR        CR    7/31/1
## #  with 23 more rows, and 13 more variables: `t(4;11)` <lgl>,
## #   `t(9;22)` <lgl>, cyto.normal <lgl>, citog <chr>, mol.biol <chr>,
## #   `fusion protein` <chr>, mdr <chr>, kinet <chr>, ccr <lgl>,
## #   relapse <lgl>, transplant <lgl>, f.u <chr>, `date last seen` <chr>

pdata %>% mutate(sex = factor(sex, levels = c("F", "M")))

## # A tibble: 128 x 22
##    sample cod   diagnosis sex     age BT    remission CR    date.cr
##    <chr>  <chr> <chr>     <fct> <dbl> <chr> <chr>     <chr> <chr>  
##  1 01005  1005  5/21/1997 M        53 B2    CR        CR    8/6/19
##  2 01010  1010  3/29/2000 M        19 B2    CR        CR    6/27/2
##  3 03002  3002  6/24/1998 F        52 B4    CR        CR    8/17/1
##  4 04006  4006  7/17/1997 M        38 B1    CR        CR    9/8/19
##  5 04007  4007  7/22/1997 M        57 B2    CR        CR    9/17/1
##  6 04008  4008  7/30/1997 M        17 B1    CR        CR    9/27/1
##  7 04010  4010  10/30/19 F        18 B1    CR        CR    1/7/19
##  8 04016  4016  2/10/2000 M        16 B1    CR        CR    4/17/2
##  9 06002  6002  3/19/1997 M        15 B2    CR        CR    6/9/19
## 10 08001  8001  1/15/1997 M        40 B2    CR        CR    3/26/1
## #  with 118 more rows, and 13 more variables: `t(4;11)` <lgl>,
## #   `t(9;22)` <lgl>, cyto.normal <lgl>, citog <chr>, mol.biol <chr>,
## #   `fusion protein` <chr>, mdr <chr>, kinet <chr>, ccr <lgl>,
## #   relapse <lgl>, transplant <lgl>, f.u <chr>, `date last seen` <chr>
…
Gathering

library(tidyr)

tbl <- gather(data, "Gene", "Count", -(1:3))
tbl

## # A tibble: 40 x 5
##    Run        cell    dex   Gene            Count
##    <chr>      <chr>   <chr> <chr>           <dbl>
##  1 SRR1039508 N61311  untrt ENSG00000000003   679
##  2 SRR1039509 N61311  trt   ENSG00000000003   448
##  3 SRR1039512 N052611 untrt ENSG00000000003   873
##  4 SRR1039513 N052611 trt   ENSG00000000003   408
##  5 SRR1039516 N080611 untrt ENSG00000000003  1138
##  6 SRR1039517 N080611 trt   ENSG00000000003  1047
##  7 SRR1039520 N061011 untrt ENSG00000000003   770
##  8 SRR1039521 N061011 trt   ENSG00000000003   572
##  9 SRR1039508 N61311  untrt ENSG00000000419   467
## 10 SRR1039509 N61311  trt   ENSG00000000419   515
## #  with 30 more rows
…
2.3 Visualization

Tidy all the data.

counts_tbl <- gather(counts, "Gene", "Count", -Run)
data_tbl <- left_join(pdata, counts_tbl)

## Joining, by = "Run"

data_tbl

## # A tibble: 267,752 x 5
##    Run        cell   dex   Gene            Count
##    <chr>      <chr>  <chr> <chr>           <dbl>
##  1 SRR1039508 N61311 untrt ENSG00000000003   679
##  2 SRR1039508 N61311 untrt ENSG00000000419   467
##  3 SRR1039508 N61311 untrt ENSG00000000457   260
##  4 SRR1039508 N61311 untrt ENSG00000000460    60
##  5 SRR1039508 N61311 untrt ENSG00000000938     0
##  6 SRR1039508 N61311 untrt ENSG00000000971  3251
##  7 SRR1039508 N61311 untrt ENSG00000001036  1433
##  8 SRR1039508 N61311 untrt ENSG00000001084   519
##  9 SRR1039508 N61311 untrt ENSG00000001167   394
## 10 SRR1039508 N61311 untrt ENSG00000001460   172
## #  with 267,742 more rows

Summarize average expression of each gene.

gene_summaries <-
    data_tbl %>%
    group_by(Gene) %>%
    summarize(
        ave_count = mean(Count),
        ave_log_count = mean(log(1 + Count))
    )
gene_summaries

## # A tibble: 33,469 x 3
##    Gene            ave_count ave_log_count
##    <chr>               <dbl>         <dbl>
##  1 ENSG00000000003   742.            6.55 
##  2 ENSG00000000419   535.            6.26 
##  3 ENSG00000000457   242             5.48 
##  4 ENSG00000000460    58.4           4.05 
##  5 ENSG00000000938     0.375         0.224
##  6 ENSG00000000971  6035.            8.63 
##  7 ENSG00000001036  1305             7.15 
##  8 ENSG00000001084   615.            6.40 
##  9 ENSG00000001167   392.            5.89 
## 10 ENSG00000001460   188.            5.21 
## #  with 33,459 more rows
…
